2_2/Bilgisayar Organizasyonu/Ödevler/Ödev 1/22011093_2/Q1/alu_test_dmp.vcd
$date
	Mon Apr 14 14:57:30 2025
$end
$version
	Icarus Verilog
$end
$timescale
	1ps
$end
$scope module TB_ALU32 $end
$var wire 1 ! Zero $end
$var wire 32 " Result [31:0] $end
$var wire 1 # Overflow $end
$var reg 32 $ A [31:0] $end
$var reg 3 % ALUControl [2:0] $end
$var reg 32 & B [31:0] $end
$scope module uut $end
$var wire 32 ' A [31:0] $end
$var wire 3 ( ALUControl [2:0] $end
$var wire 32 ) B [31:0] $end
$var wire 32 * or_Result [31:0] $end
$var wire 32 + and_Result [31:0] $end
$var wire 1 ! Zero $end
$var wire 32 , Sum [31:0] $end
$var wire 32 - Result [31:0] $end
$var wire 1 # Overflow $end
$var wire 1 . LT_1 $end
$var wire 32 / LT [31:0] $end
$var wire 1 0 Cout $end
$var wire 32 1 Bnot [31:0] $end
$var wire 32 2 B_mux [31:0] $end
$scope module adder $end
$var wire 32 3 A [31:0] $end
$var wire 1 4 Cin $end
$var wire 32 5 Sum [31:0] $end
$var wire 1 0 Cout $end
$var wire 32 6 B [31:0] $end
$upscope $end
$scope module and_gate $end
$var wire 32 7 A [31:0] $end
$var wire 32 8 B [31:0] $end
$var wire 32 9 Result [31:0] $end
$upscope $end
$scope module mux $end
$var wire 32 : in0 [31:0] $end
$var wire 32 ; in1 [31:0] $end
$var wire 32 < in2 [31:0] $end
$var wire 32 = in4 [31:0] $end
$var wire 32 > in6 [31:0] $end
$var wire 32 ? in7 [31:0] $end
$var wire 3 @ sel [2:0] $end
$var wire 32 A in5 [31:0] $end
$var wire 32 B in3 [31:0] $end
$var reg 32 C out [31:0] $end
$upscope $end
$scope module mux_1_2 $end
$var wire 32 D a [31:0] $end
$var wire 1 E sel $end
$var wire 32 F y [31:0] $end
$var wire 32 G b [31:0] $end
$upscope $end
$scope module not_gate $end
$var wire 32 H A [31:0] $end
$var wire 32 I Result [31:0] $end
$upscope $end
$scope module or_gate $end
$var wire 32 J A [31:0] $end
$var wire 32 K B [31:0] $end
$var wire 32 L Result [31:0] $end
$upscope $end
$scope module slt $end
$var wire 1 M A $end
$var wire 3 N ALUControl [2:0] $end
$var wire 1 O B $end
$var wire 1 . LT $end
$var wire 1 # Overflow $end
$var wire 1 P Sum $end
$var wire 1 Q gate1 $end
$var wire 1 R gate2 $end
$var wire 1 S gate3 $end
$upscope $end
$scope module zero_extender $end
$var wire 1 . in $end
$var wire 32 T out [31:0] $end
$upscope $end
$upscope $end
$upscope $end
$enddefinitions $end
$comment Show the parameter values. $end
$dumpall
$end
#0
$dumpvars
b0 T
1S
0R
1Q
0P
0O
b0 N
0M
b101001100110101 L
b100001100100001 K
b1001000110100 J
b11111111111111111011110011011110 I
b100001100100001 H
b11111111111111111011110011011110 G
b100001100100001 F
0E
b100001100100001 D
b101010101010101 C
b101001100110101 B
b0 A
b0 @
b0 ?
b0 >
b0 =
b1000100000 <
b101010101010101 ;
b101010101010101 :
b1000100000 9
b100001100100001 8
b1001000110100 7
b100001100100001 6
b101010101010101 5
04
b1001000110100 3
b100001100100001 2
b11111111111111111011110011011110 1
00
b0 /
0.
b101010101010101 -
b101010101010101 ,
b1000100000 +
b101001100110101 *
b100001100100001 )
b0 (
b1001000110100 '
b100001100100001 &
b0 %
b1001000110100 $
0#
b101010101010101 "
0!
$end
#10000
0Q
10
1E
14
b1101110111001100 "
b1101110111001100 -
b1101110111001100 C
b11111111111111111110110111001011 2
b11111111111111111110110111001011 6
b11111111111111111110110111001011 F
b11111111111111111110110111001011 1
b11111111111111111110110111001011 G
b11111111111111111110110111001011 I
b1101110111001100 ,
b1101110111001100 5
b1101110111001100 :
b1101110111001100 ;
b1000000000000 +
b1000000000000 9
b1000000000000 <
b1111001000110100 *
b1111001000110100 B
b1111001000110100 L
b1 %
b1 (
b1 @
b1 N
b1001000110100 &
b1001000110100 )
b1001000110100 8
b1001000110100 D
b1001000110100 H
b1001000110100 K
b1111000000000000 $
b1111000000000000 '
b1111000000000000 3
b1111000000000000 7
b1111000000000000 J
#20000
1Q
00
0S
b1100110011001100 2
b1100110011001100 6
b1100110011001100 F
0E
04
b1000100010001000 "
b1000100010001000 -
b1000100010001000 C
b11111111111111110011001100110011 1
b11111111111111110011001100110011 G
b11111111111111110011001100110011 I
b10111011101110110 ,
b10111011101110110 5
b10111011101110110 :
b10111011101110110 ;
b1000100010001000 +
b1000100010001000 9
b1000100010001000 <
b1110111011101110 *
b1110111011101110 B
b1110111011101110 L
b10 %
b10 (
b10 @
b10 N
b1100110011001100 &
b1100110011001100 )
b1100110011001100 8
b1100110011001100 D
b1100110011001100 H
b1100110011001100 K
b1010101010101010 $
b1010101010101010 '
b1010101010101010 3
b1010101010101010 7
b1010101010101010 J
#30000
0Q
10
1E
14
b1001100110100 "
b1001100110100 -
b1001100110100 C
b11111111111111111111110111111011 2
b11111111111111111111110111111011 6
b11111111111111111111110111111011 F
b11111111111111111111110111111011 1
b11111111111111111111110111111011 G
b11111111111111111111110111111011 I
b111100101100 ,
b111100101100 5
b111100101100 :
b111100101100 ;
b0 +
b0 9
b0 <
b1001100110100 *
b1001100110100 B
b1001100110100 L
b11 %
b11 (
b11 @
b11 N
b1000000100 &
b1000000100 )
b1000000100 8
b1000000100 D
b1000000100 H
b1000000100 K
b1000100110000 $
b1000100110000 '
b1000100110000 3
b1000100110000 7
b1000100110000 J
#40000
1!
1S
b11111111111111110111111111111111 2
b11111111111111110111111111111111 6
b11111111111111110111111111111111 F
b0 "
b0 -
b0 C
b11111111111111110111111111111111 1
b11111111111111110111111111111111 G
b11111111111111110111111111111111 I
b0 ,
b0 5
b0 :
b0 ;
b1000000000000000 +
b1000000000000000 9
b1000000000000000 <
b1000000000000000 *
b1000000000000000 B
b1000000000000000 L
b1 %
b1 (
b1 @
b1 N
b1000000000000000 &
b1000000000000000 )
b1000000000000000 8
b1000000000000000 D
b1000000000000000 H
b1000000000000000 K
b1000000000000000 $
b1000000000000000 '
b1000000000000000 3
b1000000000000000 7
b1000000000000000 J
#50000
0!
b1 "
b1 -
b1 C
1R
b1 /
b1 A
b1 T
1.
b11111111111111111111111111110101 2
b11111111111111111111111111110101 6
b11111111111111111111111111110101 F
1P
b11111111111111111111111111110101 1
b11111111111111111111111111110101 G
b11111111111111111111111111110101 I
b11111111111111111111111111111011 ,
b11111111111111111111111111111011 5
b11111111111111111111111111111011 :
b11111111111111111111111111111011 ;
00
b0 +
b0 9
b0 <
b1111 *
b1111 B
b1111 L
b101 %
b101 (
b101 @
b101 N
b1010 &
b1010 )
b1010 8
b1010 D
b1010 H
b1010 K
b101 $
b101 '
b101 3
b101 7
b101 J
#60000
1!
b0 "
b0 -
b0 C
0R
b0 /
b0 A
b0 T
0.
0P
b1010 ,
b1010 5
b1010 :
b1010 ;
10
b11110 *
b11110 B
b11110 L
b10100 $
b10100 '
b10100 3
b10100 7
b10100 J
#70000
0!
b1 "
b1 -
b1 C
1Q
b1 /
b1 A
b1 T
1.
b11111111111111111111111111111010 2
b11111111111111111111111111111010 6
b11111111111111111111111111111010 F
1P
b11111111111111111111111111111010 1
b11111111111111111111111111111010 G
b11111111111111111111111111111010 I
1M
b11111111111111111111111111001001 ,
b11111111111111111111111111001001 5
b11111111111111111111111111001001 :
b11111111111111111111111111001001 ;
b100 +
b100 9
b100 <
b11111111111111111111111111001111 *
b11111111111111111111111111001111 B
b11111111111111111111111111001111 L
b101 &
b101 )
b101 8
b101 D
b101 H
b101 K
b11111111111111111111111111001110 $
b11111111111111111111111111001110 '
b11111111111111111111111111001110 3
b11111111111111111111111111001110 7
b11111111111111111111111111001110 J
#80000
1!
b0 "
b0 -
b0 C
00
1Q
b0 /
b0 A
b0 T
0.
b110001 2
b110001 6
b110001 F
0P
1O
b110001 1
b110001 G
b110001 I
0M
b110111 ,
b110111 5
b110111 :
b110111 ;
b11111111111111111111111111001110 &
b11111111111111111111111111001110 )
b11111111111111111111111111001110 8
b11111111111111111111111111001110 D
b11111111111111111111111111001110 H
b11111111111111111111111111001110 K
b101 $
b101 '
b101 3
b101 7
b101 J
#90000
1#
1R
b0 /
b0 A
b0 T
0.
0!
b1 2
b1 6
b1 F
1P
0E
04
b10000000000000000000000000000000 "
b10000000000000000000000000000000 -
b10000000000000000000000000000000 C
0O
b11111111111111111111111111111110 1
b11111111111111111111111111111110 G
b11111111111111111111111111111110 I
b10000000000000000000000000000000 ,
b10000000000000000000000000000000 5
b10000000000000000000000000000000 :
b10000000000000000000000000000000 ;
b1 +
b1 9
b1 <
b1111111111111111111111111111111 *
b1111111111111111111111111111111 B
b1111111111111111111111111111111 L
b0 %
b0 (
b0 @
b0 N
b1 &
b1 )
b1 8
b1 D
b1 H
b1 K
b1111111111111111111111111111111 $
b1111111111111111111111111111111 '
b1111111111111111111111111111111 3
b1111111111111111111111111111111 7
b1111111111111111111111111111111 J
#100000
b1 /
b1 A
b1 T
1.
1#
0P
1Q
10
1R
b1111111111111111111111111111111 "
b1111111111111111111111111111111 -
b1111111111111111111111111111111 C
1O
b11111111111111111111111111111111 2
b11111111111111111111111111111111 6
b11111111111111111111111111111111 F
b0 1
b0 G
b0 I
1M
b1111111111111111111111111111111 ,
b1111111111111111111111111111111 5
b1111111111111111111111111111111 :
b1111111111111111111111111111111 ;
b10000000000000000000000000000000 +
b10000000000000000000000000000000 9
b10000000000000000000000000000000 <
b11111111111111111111111111111111 *
b11111111111111111111111111111111 B
b11111111111111111111111111111111 L
b11111111111111111111111111111111 &
b11111111111111111111111111111111 )
b11111111111111111111111111111111 8
b11111111111111111111111111111111 D
b11111111111111111111111111111111 H
b11111111111111111111111111111111 K
b10000000000000000000000000000000 $
b10000000000000000000000000000000 '
b10000000000000000000000000000000 3
b10000000000000000000000000000000 7
b10000000000000000000000000000000 J
